[
  {
    "model": "fuel.other",
    "pk": 1,
    "fields": {
      "name": "Taxes",
      "date": "2023-01-01",
      "money": "36.00",
      "date_added": "2023-10-27T08:33:34.608Z",
      "recurrence": "M",
      "recurrence_iteration_amount": 12
    }
  },
  {
    "model": "fuel.other",
    "pk": 2,
    "fields": {
      "name": "Insurance",
      "date": "2023-01-01",
      "money": "62.34",
      "date_added": "2023-10-27T08:33:29.422Z",
      "recurrence": "M",
      "recurrence_iteration_amount": 12
    }
  },
  {
    "model": "fuel.other",
    "pk": 3,
    "fields": {
      "name": "Parking space",
      "date": "2022-09-01",
      "money": "100.00",
      "date_added": "2023-10-27T08:34:20.749Z",
      "recurrence": "M",
      "recurrence_iteration_amount": 12
    }
  },
  {
    "model": "fuel.other",
    "pk": 4,
    "fields": {
      "name": "Parking space",
      "date": "2023-09-01",
      "money": "110.00",
      "date_added": "2023-10-27T08:34:44.448Z",
      "recurrence": "M",
      "recurrence_iteration_amount": 12
    }
  },
  {
    "model": "fuel.other",
    "pk": 5,
    "fields": {
      "name": "Apk",
      "date": "2023-09-01",
      "money": "70.00",
      "date_added": "2023-10-27T08:37:12.031Z",
      "recurrence": "N",
      "recurrence_iteration_amount": 1
    }
  },
  {
    "model": "fuel.other",
    "pk": 6,
    "fields": {
      "name": "Apk",
      "date": "2022-09-01",
      "money": "70.00",
      "date_added": "2023-10-27T08:37:34.701Z",
      "recurrence": "N",
      "recurrence_iteration_amount": 1
    }
  }
]
